{
  "new.year": "Neujahrstag",
  "easter.friday": "Karfreitag",
  "easter.monday": "Ostermontag",
  "workers.day": "Tag der Arbeit",
  "easter.feast.of.the.ascension": "Christi Himmelfahrt",
  "easter.pentecost.monday": "Pfingstmontag",
  "christmas.day": "Erster Weihnachtsfeiertag",
  "christmas.stephen": "Zweiter Weihnachtsfeiertag"
}