{
  "new.year": "Uudenvuodenpäivä",
  "epiphany": "Loppiainen",
  "easter": "Pääsiäinen",
  "easter.friday": "Pitkäperjantai",
  "easter.monday": "2. pääsiäispäivä",
  "all.saints": "Pyhäinpäivä",
  "workers.day": "Vappu",
  "easter.feast.of.the.ascension" :"Helatorstai",
  "easter.pentecost": "Helluntai",
  "midsummer": "Juhannuspäivä",
  "midsummer.eve": "Juhannusaatto",
  "christmas.eve": "Jouluaatto",
  "christmas.day": "Joulupäivä",
  "christmas.stephen": "2. joulupäivä"
}